
      DENUMIRE                                                           
CODC  CLIENT   ADRESA    LOC                  CONT        BANCA          
----- -------- --------- -------------------- ----------- ---------------
0     GOODS    PIPERA    BUCURESTI            A1234567890 BRD            
               135                                                       

1     GOODS    PIPERA    BUCURESTI            A1234567890 BRD            
               135                                                       

2     Depozit  Stefan    BUCURESTI            A1234556780 BCR            
      PC       cel mare                                                  
               110                                                       

3     Flamingo mihai     Cluj                 A1231231235 BRD            
               Eminescu                                                  
               18                                                        

4     Ultra    Mihai     TIMISOARA            B1234567890 BRD            
      Pro      Bravu 11                                                  

5     FLANCO   DOROBANTI CLUJ                 C1234567890 BCR            
               LOR 130                                                   


6 rows selected. 


      DENUMIRE                                                             
CODF  FURNIZOR   ADRESA    LOC                  CONT        BANCA          
----- ---------- --------- -------------------- ----------- ---------------
1     GOODS      PIPERA    BUCURESTI            A1234567890 BRD            
                 135                                                       

2     ComputerNT Gral      Iasi                 A1234123412 BRD            
                 Popescu                                                   
                 13                                                        

3     Pyton      Charles   Cluj                 A1234512345 BCR            
                 de Gaule                                                  
                 117                                                       

4     Blue Ridge Magheru   BUCURESTI            B1234554321 BRD            
                 307                                                       

5     Deck Elect Lacul Alb Iasi                 B1234567777 BCR            
      ronik      35                                                        



Session altered.


TERMEN     
-----------
01-AUG-2006
01-AUG-2005
01-JUN-2004
01-DEC-2004
01-JUN-2004

